<?xml version="1.0" encoding="iso-8859-1"?>
<!-- Generator: Adobe Illustrator 19.0.0, SVG Export Plug-In . SVG Version: 6.00 Build 0)  -->
<svg version="1.1" id="Layer_1" xmlns="http://www.w3.org/2000/svg" xmlns:xlink="http://www.w3.org/1999/xlink" x="0px" y="0px"
	 viewBox="0 0 512.006 512.006" style="enable-background:new 0 0 512.006 512.006;" xml:space="preserve">
<g>
	<path style="fill:#4897F7;" d="M435.162,256c0,98.97-80.23,179.2-179.2,179.2s-179.2-80.23-179.2-179.2s80.23-179.2,179.2-179.2
		S435.162,157.03,435.162,256"/>
	<g>
		<path style="fill:#25AD87;" d="M430.944,439.517c-2.185,0-4.369-0.836-6.033-2.5c-3.337-3.337-3.337-8.738,0-12.066
			c24.789-24.789,43.426-53.914,55.381-86.554c1.63-4.42,6.554-6.682,10.948-5.077c4.429,1.621,6.707,6.519,5.077,10.948
			c-12.817,34.987-32.785,66.193-59.341,92.749C435.314,438.681,433.129,439.517,430.944,439.517"/>
		<path style="fill:#25AD87;" d="M498.111,315.733c-0.58,0-1.178-0.06-1.766-0.179c-4.608-0.973-7.569-5.504-6.588-10.112
			c6.801-32.341,6.801-66.526,0-98.876c-0.981-4.608,1.98-9.139,6.588-10.112c4.591-0.964,9.139,1.988,10.112,6.596
			c7.398,35.14,7.398,70.767,0,105.907C505.612,312.977,502.062,315.733,498.111,315.733"/>
		<path style="fill:#25AD87;" d="M488.303,179.175c-3.473,0-6.741-2.142-8.004-5.598c-11.981-32.64-30.609-61.756-55.39-86.528
			c-3.328-3.328-3.328-8.73,0-12.066c3.337-3.337,8.738-3.337,12.066,0c26.547,26.539,46.515,57.737,59.332,92.715
			c1.63,4.429-0.64,9.327-5.06,10.948C490.266,179.005,489.276,179.175,488.303,179.175"/>
		<path style="fill:#25AD87;" d="M80.978,439.525c-2.185,0-4.369-0.836-6.033-2.5c-26.556-26.556-46.524-57.762-59.349-92.757
			c-1.621-4.42,0.657-9.318,5.086-10.94c4.403-1.621,9.327,0.649,10.948,5.077c11.947,32.64,30.592,61.764,55.381,86.554
			c3.337,3.328,3.337,8.73,0,12.066C85.347,438.688,83.162,439.525,80.978,439.525"/>
		<path style="fill:#25AD87;" d="M13.811,315.738c-3.951,0-7.501-2.756-8.346-6.775c-7.287-34.645-7.287-71.262,0-105.907
			c0.973-4.608,5.513-7.561,10.112-6.588c4.608,0.973,7.569,5.495,6.588,10.112c-6.801,32.341-6.801,66.526,0,98.867
			c0.981,4.608-1.98,9.139-6.588,10.112C14.989,315.678,14.391,315.738,13.811,315.738"/>
		<path style="fill:#25AD87;" d="M23.619,179.183c-0.973,0-1.963-0.171-2.944-0.529c-4.42-1.621-6.69-6.519-5.06-10.948
			c12.817-34.987,32.785-66.185,59.332-92.715c3.328-3.337,8.73-3.337,12.066,0c3.328,3.328,3.328,8.73,0,12.066
			c-24.781,24.772-43.409,53.888-55.39,86.528C30.361,177.041,27.092,179.183,23.619,179.183"/>
	</g>
	<g>
		<path style="fill:#FFFFFF;" d="M238.895,375.467c-4.719,0-8.533-3.823-8.533-8.533v-204.8c0-4.71,3.814-8.533,8.533-8.533
			s8.533,3.823,8.533,8.533v204.8C247.428,371.644,243.614,375.467,238.895,375.467"/>
		<path style="fill:#FFFFFF;" d="M247.428,256h17.067c23.526,0,42.667-19.14,42.667-42.667s-19.14-42.667-42.667-42.667h-17.067V256
			z M264.495,273.067h-25.6c-4.719,0-8.533-3.823-8.533-8.533v-102.4c0-4.71,3.814-8.533,8.533-8.533h25.6
			c32.93,0,59.733,26.795,59.733,59.733S297.425,273.067,264.495,273.067L264.495,273.067z"/>
	</g>
</g>
<g>
</g>
<g>
</g>
<g>
</g>
<g>
</g>
<g>
</g>
<g>
</g>
<g>
</g>
<g>
</g>
<g>
</g>
<g>
</g>
<g>
</g>
<g>
</g>
<g>
</g>
<g>
</g>
<g>
</g>
</svg>
