<?xml version="1.0" encoding="iso-8859-1"?>
<!-- Generator: Adobe Illustrator 19.0.0, SVG Export Plug-In . SVG Version: 6.00 Build 0)  -->
<svg version="1.1" id="Capa_1" xmlns="http://www.w3.org/2000/svg" xmlns:xlink="http://www.w3.org/1999/xlink" x="0px" y="0px"
	 viewBox="0 0 496 496" style="enable-background:new 0 0 496 496;" xml:space="preserve">
<g>
	<g>
		<g>
			<path d="M424,104H317.896c-1.672-2-3.648-3.696-5.896-4.992V56c0-10.416-6.712-19.216-16-22.528V0h-96v33.472
				c-9.288,3.312-16,12.112-16,22.528v43.008c-4.832,2.792-8.528,7.376-10.168,12.992H72c-39.696,0-72,32.304-72,72v256
				c0,30.88,25.12,56,56,56h96c13.232,0,24-10.768,24-24v-16c0-13.232-10.768-24-24-24H99.144c-10.552,0-19.144-8.584-19.16-18.608
				l28.264-216.544C109.824,184.96,120.048,176,132.04,176H161c2.72,9.208,11.16,16,21.24,16H184v104c0,13.232,10.768,24,24,24
				h0.936l8,64h62.128l8-64H288c13.232,0,24-10.768,24-24V192h1.76c12.264,0,22.24-9.984,22.24-22.248
				c0-0.584-0.168-1.168-0.216-1.752h28.056c12.04,0,22.28,9,23.808,20.952l27.952,217.84l0.4,6.04C416,423.4,407.4,432,396.832,432
				H344c-13.232,0-24,10.768-24,24v16c0,13.232,10.768,24,24,24h96c30.88,0,56-25.12,56-56V176C496,136.304,463.696,104,424,104z
				 M144,448h8c4.408,0,8,3.592,8,8v16c0,4.408-3.592,8-8,8h-8V448z M161.752,160H132.04c-19.984,0-37.032,14.936-39.656,34.744
				l-27.936,211.08L64,412.856C64,432.232,79.768,448,99.144,448H128v32H56c-22.056,0-40-17.944-40-40V184c0-30.88,25.12-56,56-56
				h97.752L161.752,160z M216,16h64v16h-64V16z M200,56c0-4.416,3.592-8,8-8h80c4.408,0,8,3.592,8,8v8h-96V56z M200,80h96v16h-96V80
				z M264.936,368h-33.872l-6-48h45.872L264.936,368z M296,296c0,4.408-3.592,8-8,8h-80c-4.408,0-8-3.592-8-8v-8h96V296z M296,272
				h-96v-16h96V272z M296,208h-16v16h16v16h-96v-16h64v-16h-64v-16h96V208z M313.76,176H182.24c-3.44,0-6.24-2.8-6.24-6.248
				c0-0.504,0.064-1.016,0.184-1.512l12.88-51.512c0.696-2.784,3.184-4.728,6.056-4.728h105.76c2.864,0,5.352,1.944,6.048,4.728
				l12.88,51.504c0.128,0.504,0.192,1.016,0.192,1.528C320,173.2,317.2,176,313.76,176z M352,480h-8c-4.408,0-8-3.592-8-8v-16
				c0-4.408,3.592-8,8-8h8V480z M480,440c0,22.056-17.944,40-40,40h-72v-32h28.832c19.392,0,35.168-15.776,35.16-35.68
				l-28.472-225.4c-2.552-19.912-19.608-34.92-39.68-34.92h-31.592l-8-32H424c30.88,0,56,25.12,56,56V440z"/>
			<rect x="200" y="128" width="16" height="16"/>
			<rect x="232" y="128" width="64" height="16"/>
		</g>
	</g>
</g>
<g>
</g>
<g>
</g>
<g>
</g>
<g>
</g>
<g>
</g>
<g>
</g>
<g>
</g>
<g>
</g>
<g>
</g>
<g>
</g>
<g>
</g>
<g>
</g>
<g>
</g>
<g>
</g>
<g>
</g>
</svg>
