<?xml version="1.0" encoding="iso-8859-1"?>
<!-- Generator: Adobe Illustrator 19.0.0, SVG Export Plug-In . SVG Version: 6.00 Build 0)  -->
<svg version="1.1" id="Capa_1" xmlns="http://www.w3.org/2000/svg" xmlns:xlink="http://www.w3.org/1999/xlink" x="0px" y="0px"
	 viewBox="0 0 496 496" style="enable-background:new 0 0 496 496;" xml:space="preserve">
<g>
	<g>
		<g>
			<path d="M43.56,0L0,69.704V229.76l24,8v20.472l-24,8V472c0,13.232,10.768,24,24,24h64c13.232,0,24-10.768,24-24V266.232l-24-8
				V237.76l24-8V69.704L68.44,0H43.56z M16,304h32v112H16V304z M32,480h-8c-4.416,0-8-3.592-8-8v-40h16V480z M64,480H48v-48h16V480z
				 M96,472c0,4.408-3.584,8-8,8h-8v-48h16V472z M96,416H64V304h32V416z M96,218.232l-24,8v43.528l24,8V288H16v-10.232l24-8V226.24
				l-24-8V208h80V218.232z M96,192H16v-16h80V192z M96,160H16v-16h80V160z M96,96H80v16h16v16H16v-16h48V96H16V80h80V96z M22.432,64
				L52.44,16h7.128l30,48H22.432z"/>
			<path d="M304,0h-32h-8h-40c-13.232,0-24,10.768-24,24v448c0,13.232,10.768,24,24,24h48c13.232,0,24-10.768,24-24V192h8
				c13.232,0,24-10.768,24-24V24C328,10.768,317.232,0,304,0z M240,480h-16c-4.416,0-8-3.592-8-8v-40h24V480z M280,472
				c0,4.408-3.584,8-8,8h-16v-48h24V472z M280,416h-64V176h32v-16h-32v-16h32v-16h-32v-16h32V96h-32V80h32V64h-32V48h32V32h-32v-8
				c0-4.408,3.584-8,8-8h40v152c0,10.416,6.712,19.216,16,22.528V416z M312,168c0,4.408-3.584,8-8,8h-16c-4.416,0-8-3.592-8-8V16h24
				c4.416,0,8,3.592,8,8V168z"/>
			<path d="M472,0h-48c-13.232,0-24,10.768-24,24v401.888L435.056,496h25.888L496,425.888V24C496,10.768,485.232,0,472,0z
				 M451.056,480h-6.112l-24-48h54.112L451.056,480z M480,416h-24v-16h-16v16h-24V224h24v160h16V224h24V416z M480,208h-64v-16h32
				v-16h-32v-16h32v-16h-32v-16h32v-16h-32V96h32V80h-32V64h32V48h-32V24c0-4.408,3.584-8,8-8h48c4.416,0,8,3.592,8,8V208z"/>
		</g>
	</g>
</g>
<g>
</g>
<g>
</g>
<g>
</g>
<g>
</g>
<g>
</g>
<g>
</g>
<g>
</g>
<g>
</g>
<g>
</g>
<g>
</g>
<g>
</g>
<g>
</g>
<g>
</g>
<g>
</g>
<g>
</g>
</svg>
