<?xml version="1.0" encoding="iso-8859-1"?>
<!-- Generator: Adobe Illustrator 19.0.0, SVG Export Plug-In . SVG Version: 6.00 Build 0)  -->
<svg version="1.1" id="Capa_1" xmlns="http://www.w3.org/2000/svg" xmlns:xlink="http://www.w3.org/1999/xlink" x="0px" y="0px"
	 viewBox="0 0 496 496" style="enable-background:new 0 0 496 496;" xml:space="preserve">
<g>
	<g>
		<g>
			<path d="M280,239.983V76.119l103.68,48.784c4.264,2.016,9.024,3.08,13.752,3.08h2.28c17.8,0,32.288-14.488,32.288-32.288
				c0-12.688-7.472-24.24-19.04-29.456L281.872,7.247c-21.424-9.64-46.328-9.64-67.752,0L83.04,66.239
				C71.472,71.455,64,83.007,64,95.695c0,17.8,14.488,32.288,32.288,32.288h2.28c4.728,0,9.488-1.064,13.752-3.072L216,76.119
				v195.864h-32v64h32v48h-32v88c0,13.232,10.768,24,24,24h80c13.232,0,24-10.768,24-24v-88h-32v-48h32v-64h-32v-16h-16v16h-32
				V68.591l4.16-1.96c7.376-3.472,16.32-3.472,23.68,0l4.16,1.96v171.392H280z M296,399.983v72c0,4.416-3.584,8-8,8h-80
				c-4.416,0-8-3.584-8-8v-72h16v8c0,17.648,14.352,32,32,32s32-14.352,32-32v-8H296z M232,407.983v-72h32v72
				c0,8.824-7.176,16-16,16C239.176,423.983,232,416.807,232,407.983z M296,287.983v32h-96v-32H296z M248,47.983
				c-6.4,0-12.84,1.44-18.64,4.168l-123.848,58.288c-2.16,1.008-4.56,1.544-6.944,1.544h-2.28c-8.984,0-16.288-7.304-16.288-16.288
				c0-6.4,3.776-12.232,9.6-14.856l131.088-58.992c17.28-7.784,37.344-7.784,54.624,0L406.4,80.831
				c5.832,2.624,9.6,8.464,9.6,14.856c0,8.992-7.304,16.296-16.288,16.296h-2.28c-2.384,0-4.784-0.536-6.936-1.552L266.64,52.151
				C260.84,49.423,254.4,47.983,248,47.983z"/>
			<path d="M472,303.983h-64c-13.232,0-24,10.768-24,24v144c0,13.232,10.768,24,24,24h64c13.232,0,24-10.768,24-24v-144
				C496,314.751,485.232,303.983,472,303.983z M480,471.983c0,4.416-3.584,8-8,8h-64c-4.416,0-8-3.584-8-8v-24h80V471.983z
				 M480,431.983h-80v-64h80V431.983z M480,351.983h-80v-24c0-4.416,3.584-8,8-8h64c4.416,0,8,3.584,8,8V351.983z"/>
			<path d="M88,303.983H24c-13.232,0-24,10.768-24,24v144c0,13.232,10.768,24,24,24h64c13.232,0,24-10.768,24-24v-144
				C112,314.751,101.232,303.983,88,303.983z M96,431.983H48v16h48v24c0,4.416-3.584,8-8,8H24c-4.416,0-8-3.584-8-8v-24h16v-16H16
				v-64h80V431.983z M96,351.983H16v-24c0-4.416,3.584-8,8-8h64c4.416,0,8,3.584,8,8V351.983z"/>
			<rect x="32" y="383.983" width="16" height="32"/>
			<rect x="64" y="383.983" width="16" height="32"/>
			<rect x="416" y="383.983" width="48" height="16"/>
		</g>
	</g>
</g>
<g>
</g>
<g>
</g>
<g>
</g>
<g>
</g>
<g>
</g>
<g>
</g>
<g>
</g>
<g>
</g>
<g>
</g>
<g>
</g>
<g>
</g>
<g>
</g>
<g>
</g>
<g>
</g>
<g>
</g>
</svg>
