<?xml version="1.0" encoding="iso-8859-1"?>
<!-- Generator: Adobe Illustrator 19.0.0, SVG Export Plug-In . SVG Version: 6.00 Build 0)  -->
<svg version="1.1" id="Capa_1" xmlns="http://www.w3.org/2000/svg" xmlns:xlink="http://www.w3.org/1999/xlink" x="0px" y="0px"
	 viewBox="0 0 496 496" style="enable-background:new 0 0 496 496;" xml:space="preserve">
<g>
	<g>
		<g>
			<path d="M472,256V120L446.472,0h-28.936l-25.352,118.328L392.008,256H344v-15.088L367.8,137.8L368,120H256v16l24,104.912V256h-48
				V120L206.472,0h-28.936l-25.352,118.328L152.008,256H120v-92.944l-16-8V32c0-17.648-14.352-32-32-32S40,14.352,40,32v123.056
				l-16,8V256H0v176h24v32c0,17.648,14.352,32,32,32h32c17.648,0,32-14.352,32-32v-32h32v32c0,17.648,14.352,32,32,32h16
				c17.648,0,32-14.352,32-32v-32h48v32c0,17.648,14.352,32,32,32s32-14.352,32-32v-32h48v32c0,17.648,14.352,32,32,32h16
				c17.648,0,32-14.352,32-32v-32h24V256H472z M408,120.848L430.472,16h3.064L456,120.848V256h-48V120.848z M272.208,136h79.576
				L328.2,238.2l-0.136,17.8H296v-16L272.208,136z M168,120.848L190.472,16h3.064L216,120.848V256h-48V120.848z M40,172.944l16-8V32
				c0-8.824,7.176-16,16-16s16,7.176,16,16v132.944l16,8V256H40V172.944z M104,464c0,8.824-7.176,16-16,16H56
				c-8.824,0-16-7.176-16-16v-32h64V464z M216,464c0,8.824-7.176,16-16,16h-16c-8.824,0-16-7.176-16-16v-32h48V464z M328,464
				c0,8.824-7.176,16-16,16c-8.824,0-16-7.176-16-16v-32h32V464z M480,416h-40v16h16v32c0,8.824-7.176,16-16,16h-16
				c-8.824,0-16-7.176-16-16v-32h16v-16H16V272h464V416z"/>
			<path d="M456,296H40v96h416V296z M440,376H56v-64h384V376z"/>
			<rect x="408" y="328" width="16" height="16"/>
			<rect x="72" y="328" width="320" height="16"/>
		</g>
	</g>
</g>
<g>
</g>
<g>
</g>
<g>
</g>
<g>
</g>
<g>
</g>
<g>
</g>
<g>
</g>
<g>
</g>
<g>
</g>
<g>
</g>
<g>
</g>
<g>
</g>
<g>
</g>
<g>
</g>
<g>
</g>
</svg>
