<?xml version="1.0" encoding="iso-8859-1"?>
<!-- Generator: Adobe Illustrator 19.0.0, SVG Export Plug-In . SVG Version: 6.00 Build 0)  -->
<svg version="1.1" id="Capa_1" xmlns="http://www.w3.org/2000/svg" xmlns:xlink="http://www.w3.org/1999/xlink" x="0px" y="0px"
	 viewBox="0 0 496 496" style="enable-background:new 0 0 496 496;" xml:space="preserve">
<g>
	<g>
		<g>
			<path d="M480,448V0h-48v28.552L411.08,16H84.92L64,28.552V0H16v448H0v48h80v-48H64v-80h40c0,17.648,14.352,32,32,32
				s32-14.352,32-32v-32h160v32c0,17.648,14.352,32,32,32s32-14.352,32-32h40v80h-16v48h80v-48H480z M32,16h16v400H32V16z M32,432
				h16v16H32V432z M64,480H16v-16h48V480z M448,16h16v400h-16V16z M448,432h16v16h-16V432z M64,47.216L89.344,32h317.304L432,47.216
				v18.656L402.216,48H93.784L64,65.872V47.216z M64,84.528L98.216,64h299.568L432,84.528V232h-40v-2.88
				c0-11.408-8.112-21.304-19.296-23.536L352,201.44V144c0-13.232-10.768-24-24-24H168c-13.232,0-24,10.768-24,24v57.44
				l-20.704,4.144C112.112,207.816,104,217.712,104,229.12V232H64V84.528z M104,352H64V248h40v40c-13.232,0-24,10.768-24,24
				s10.768,24,24,24V352z M152,368c0,8.824-7.176,16-16,16c-8.824,0-16-7.176-16-16v-32h32V368z M376,368c0,8.824-7.176,16-16,16
				c-8.824,0-16-7.176-16-16v-32h32V368z M104,320c-4.408,0-8-3.592-8-8c0-4.408,3.592-8,8-8h240v-16H120v-58.88
				c0-3.8,2.704-7.104,6.432-7.848L160,214.56V144c0-4.408,3.592-8,8-8h160c4.408,0,8,3.592,8,8v70.56l33.568,6.712
				c3.728,0.744,6.432,4.048,6.432,7.848V288h-16v16h32c4.408,0,8,3.592,8,8c0,4.408-3.592,8-8,8H104z M392,352v-16
				c13.232,0,24-10.768,24-24s-10.768-24-24-24v-40h40v104H392z M480,480h-48v-16h48V480z"/>
			<path d="M320,152H176v56h144V152z M304,192H192v-24h112V192z"/>
			<path d="M160,224c-13.232,0-24,10.768-24,24s10.768,24,24,24s24-10.768,24-24S173.232,224,160,224z M160,256
				c-4.408,0-8-3.592-8-8c0-4.408,3.592-8,8-8s8,3.592,8,8S164.408,256,160,256z"/>
			<path d="M336,224c-13.232,0-24,10.768-24,24s10.768,24,24,24s24-10.768,24-24S349.232,224,336,224z M336,256
				c-4.408,0-8-3.592-8-8c0-4.408,3.592-8,8-8c4.408,0,8,3.592,8,8S340.408,256,336,256z"/>
			<rect x="200" y="256" width="96" height="16"/>
			<rect x="200" y="224" width="96" height="16"/>
		</g>
	</g>
</g>
<g>
</g>
<g>
</g>
<g>
</g>
<g>
</g>
<g>
</g>
<g>
</g>
<g>
</g>
<g>
</g>
<g>
</g>
<g>
</g>
<g>
</g>
<g>
</g>
<g>
</g>
<g>
</g>
<g>
</g>
</svg>
